<svg width="10" height="8" viewBox="0 0 10 8" fill="none" xmlns="http://www.w3.org/2000/svg">
    <path d="M8.79082 0.230557L3.67208 5.98154L1.21545 2.97525C0.943112 2.64173 0.494663 2.63414 0.214556 2.95809C-0.065828 3.28237 -0.0722068 3.81548 0.200135 4.149L3.14653 7.74678C3.42026 8.07436 3.8626 8.08558 4.1477 7.77185L9.77785 1.45511C9.91458 1.30171 9.99445 1.08992 9.99972 0.866586C10.005 0.64325 9.93538 0.426512 9.80614 0.264206C9.53214 -0.0745918 9.08036 -0.0894368 8.79082 0.230557Z"
          fill="white"/>
</svg>
