<svg width="28" height="20" viewBox="0 0 28 20" fill="none" xmlns="http://www.w3.org/2000/svg">
<path d="M26.3338 0.0859375L3.5 0.0859375C2.78685 0.0859375 2.78585 1.19676 3.5 1.19676H26.3338C26.64 1.19676 26.8892 1.44592 26.8892 1.75217V14.8775C26.8892 15.1838 26.64 15.4329 26.3338 15.4329H16.6089C16.4389 15.4329 16.2783 15.5108 16.1729 15.6442L13.9326 18.4825L11.5565 15.6327C11.451 15.5062 11.2947 15.4329 11.1299 15.4329H1.66623C1.35998 15.4329 1.11082 15.1838 1.11082 14.8775V1.75217C1.11082 1.44592 1.35998 1.19676 1.66623 1.19676H3.77968C4.49283 1.19676 4.49383 0.0859375 3.77968 0.0859375H1.66623C0.747472 0.0859375 0 0.83341 0 1.75217V14.8775C0 15.7963 0.747472 16.5438 1.66623 16.5438H10.8699L13.5179 19.7196C13.7415 19.9878 14.164 19.9823 14.3804 19.708L16.8781 16.5438H26.3338C27.2525 16.5438 28 15.7963 28 14.8775V1.75217C28 0.83341 27.2525 0.0859375 26.3338 0.0859375Z" fill="#1D274A"/>
<path d="M3.07798 7.23226C3.01917 7.41322 3.0571 7.61166 3.17851 7.75818L4.25995 9.06379L4.15248 10.7558C4.06806 12.0813 6.0581 10.6736 6.48743 10.6822C6.92049 10.6909 8.90586 12.0663 8.82238 10.7558L8.71485 9.06379L9.79635 7.75818C10.049 7.45332 9.89232 6.96461 9.50637 6.86586L7.86407 6.4453L6.95653 5.01334C6.74464 4.67887 6.2315 4.67682 6.01828 5.01334L5.11073 6.4453L3.46844 6.86586C3.2841 6.91301 3.1368 7.05125 3.07798 7.23226ZM5.59972 7.46665C6.01033 7.36156 6.2806 6.67435 6.48738 6.34805C6.69082 6.66908 6.96836 7.36256 7.37503 7.46665L8.38177 7.72447L7.71878 8.52481C7.62852 8.63379 7.58326 8.77314 7.59226 8.91432L7.65818 9.95155L6.69216 9.56838C6.56058 9.51622 6.41412 9.51622 6.28254 9.56838L5.31651 9.95155L5.38239 8.91432C5.39138 8.77314 5.34612 8.63379 5.25586 8.52481L4.59292 7.72447L5.59972 7.46665Z" fill="#1D274A"/>
<path d="M17.3533 7.23183C17.2945 7.05088 17.1472 6.91258 16.9629 6.86537L15.3206 6.44482L14.413 5.01285C14.2012 4.67838 13.688 4.67633 13.4748 5.01285L12.5673 6.44482L10.925 6.86537C10.7406 6.91258 10.5933 7.05088 10.5345 7.23183C10.4757 7.41279 10.5136 7.61123 10.635 7.75775L11.7165 9.06336L11.609 10.7554C11.5245 12.0808 13.5147 10.6732 13.9439 10.6818C14.377 10.6904 16.3624 12.0659 16.2789 10.7554L16.1714 9.06336L17.2529 7.75775C17.3742 7.61123 17.4122 7.41279 17.3533 7.23183ZM15.1753 8.52439C15.0851 8.63336 15.0398 8.77271 15.0488 8.9139L15.1148 9.95113C14.7679 9.81355 14.325 9.52879 13.9439 9.52879C13.5647 9.52879 13.1191 9.81389 12.7731 9.95113L12.8391 8.9139C12.8481 8.77271 12.8028 8.63336 12.7125 8.52439L12.0496 7.72404L13.0563 7.46622C13.4669 7.36113 13.7372 6.67392 13.9439 6.34762C14.1474 6.66865 14.4249 7.36213 14.8316 7.46622L15.8383 7.72404L15.1753 8.52439Z" fill="#1D274A"/>
<path d="M24.8133 7.23183C24.7545 7.05083 24.6072 6.91258 24.4229 6.86537L22.7806 6.44482L21.873 5.01285C21.6611 4.67838 21.148 4.67633 20.9348 5.01285L20.0272 6.44482L18.3849 6.86537C18.0014 6.96357 17.8408 7.45094 18.0949 7.7577L19.1764 9.0633L19.0689 10.7553C18.9845 12.0806 20.9736 10.6731 21.4039 10.6817C21.8361 10.6903 23.8223 12.0661 23.7388 10.7553L23.6313 9.0633L24.7128 7.7577C24.8342 7.61124 24.8721 7.41279 24.8133 7.23183ZM22.6354 8.52439C22.5451 8.63336 22.4999 8.77271 22.5089 8.9139L22.5747 9.95113L21.6087 9.56795C21.4722 9.5158 21.3356 9.5158 21.1991 9.56795L20.2331 9.95113L20.299 8.9139C20.308 8.77271 20.2627 8.63336 20.1725 8.52439L19.5095 7.72404L20.5162 7.46622C20.9268 7.36113 21.1971 6.67392 21.4039 6.34762C21.6073 6.66865 21.8848 7.36213 22.2915 7.46622L23.2983 7.72404L22.6354 8.52439Z" fill="#1D274A"/>
<path d="M5.76948 1.10255C6.18754 1.38904 6.74567 0.972755 6.61232 0.493101C6.54884 0.264716 6.34183 0.09837 6.10473 0.0865953C5.86818 0.0748761 5.64457 0.220783 5.55959 0.441503C5.46806 0.679442 5.55476 0.962202 5.76948 1.10255Z" fill="#1D274A"/>
</svg>
