<svg width="25" height="25" viewBox="0 0 25 25" fill="none" xmlns="http://www.w3.org/2000/svg">
<path d="M23.6274 3.59217C22.7483 2.71244 21.5555 2.21834 20.3119 2.21876C19.0687 2.21583 17.8759 2.70977 16.9987 3.59065L10.9463 9.64316C9.74879 10.8425 9.29099 12.5944 9.74869 14.2263C9.8827 14.7014 10.3765 14.9779 10.8516 14.8439C11.3266 14.7099 11.6031 14.2161 11.4691 13.741C11.187 12.7318 11.4701 11.6489 12.21 10.907L18.2625 4.85534C19.3941 3.72351 21.2289 3.7233 22.3608 4.85493C23.4926 5.9865 23.4928 7.82137 22.3613 8.95321L16.3088 15.0057C15.9122 15.4028 15.4084 15.6758 14.8591 15.7913C14.3759 15.8919 14.0657 16.3652 14.1663 16.8484C14.2528 17.264 14.6197 17.5613 15.0441 17.56C15.1066 17.5601 15.1689 17.5535 15.23 17.5404C16.1177 17.3532 16.9317 16.9116 17.5725 16.2695L23.6251 10.2179C25.4553 8.38889 25.4564 5.42249 23.6274 3.59217Z" fill="#1D274A"/>
<path d="M15.2236 10.7963C15.0896 10.3212 14.5958 10.0447 14.1207 10.1787C13.6456 10.3127 13.3691 10.8065 13.5031 11.2816C13.7853 12.2907 13.5022 13.3737 12.7622 14.1156L6.70971 20.1681C5.57814 21.3 3.74327 21.3002 2.61143 20.1685C1.4796 19.037 1.47939 17.2021 2.61096 16.0703L8.66347 10.0169C9.05947 9.61981 9.56263 9.34681 10.1113 9.23124C10.5954 9.13441 10.9093 8.66356 10.8124 8.17958C10.7156 7.69559 10.2448 7.38164 9.76079 7.47847C9.75487 7.47968 9.74901 7.48088 9.74314 7.48219C8.85529 7.66962 8.04107 8.11118 7.39972 8.75311L1.34721 14.8056C-0.468708 16.6496 -0.44598 19.6164 1.39796 21.4323C3.22178 23.2284 6.14937 23.2286 7.97346 21.4328L14.0259 15.3794C15.2235 14.18 15.6813 12.4281 15.2236 10.7963Z" fill="#1D274A"/>
</svg>
