<svg id="crown" viewBox="0 0 46 46" xmlns="http://www.w3.org/2000/svg">
<path d="M23 0C10.3174 0 0 10.3174 0 23C0 35.6826 10.3174 46 23 46C35.6826 46 46 35.6826 46 23C46 10.3174 35.6826 0 23 0ZM36.3956 19.251L34.3122 31.3893C34.1933 32.0793 33.5953 32.5833 32.8957 32.5833H13.1042C12.4047 32.5833 11.8067 32.0793 11.6878 31.3893L9.60442 19.251C9.51242 18.7201 9.72708 18.1815 10.1583 17.8576C10.5915 17.5317 11.1646 17.48 11.6514 17.7157L17.1982 20.4163L21.7446 12.2379C22.2506 11.3237 23.7513 11.3237 24.2573 12.2379L28.8037 20.4163L34.3505 17.7157C34.8354 17.48 35.4104 17.5317 35.8436 17.8576C36.2729 18.1815 36.4876 18.7201 36.3956 19.251Z"/>
</svg>
