<svg width="163" height="162" viewBox="0 0 163 162" fill="none" xmlns="http://www.w3.org/2000/svg">
<path d="M105.447 137.455C136.682 124.009 151.103 87.7894 137.657 56.555C124.212 25.3206 87.9923 10.8996 56.758 24.3448C25.5236 37.79 11.1026 74.0099 24.5478 105.244C37.993 136.479 74.2129 150.9 105.447 137.455Z" fill="url(#paint0_linear_2819_49922)"/>
<path d="M46.0352 82.0762C46.0352 82.0762 48.0374 86.2774 54.2409 86.2774C60.4444 86.2774 61.8911 82.0762 61.8911 82.0762" stroke="#444444" stroke-width="4.37" stroke-linecap="round" stroke-linejoin="round"/>
<path d="M98.8125 82.0762C98.8125 82.0762 100.815 86.2774 107.018 86.2774C113.222 86.2774 114.657 82.0762 114.657 82.0762" stroke="#444444" stroke-width="4.37" stroke-linecap="round" stroke-linejoin="round"/>
<path d="M99.1109 114.4C99.1109 114.4 95.28 105.025 80.9402 105.025C66.6004 105.025 63.082 114.4 63.082 114.4" stroke="#444444" stroke-width="4.37" stroke-linecap="round" stroke-linejoin="round"/>
<path d="M115.873 91.1033L120.93 105.107C121.4 106.519 121.299 108.059 120.65 109.398C120.001 110.736 118.855 111.769 117.455 112.274C116.056 112.78 114.515 112.719 113.159 112.105C111.804 111.49 110.743 110.37 110.202 108.985C109.756 107.731 109.756 106.361 110.202 105.107L115.259 91.1033C115.293 91.0252 115.353 90.9621 115.43 90.9258C115.507 90.8896 115.594 90.8827 115.676 90.9065C115.72 90.9246 115.76 90.9513 115.794 90.985C115.828 91.0188 115.855 91.059 115.873 91.1033Z" fill="#91B5E6"/>
<defs>
<linearGradient id="paint0_linear_2819_49922" x1="54003.4" y1="38978.4" x2="42653.2" y2="45530.9" gradientUnits="userSpaceOnUse">
<stop stop-color="#9C8652"/>
<stop offset="1" stop-color="white"/>
</linearGradient>
</defs>
</svg>
