<svg width="281" height="281" viewBox="0 0 281 281" fill="none" xmlns="http://www.w3.org/2000/svg">
<path d="M182.26 238.042C236.351 214.758 261.325 152.033 238.041 97.9417C214.757 43.8505 152.032 18.8765 97.9407 42.1606C43.8495 65.4448 18.8756 128.17 42.1597 182.261C65.4439 236.352 128.169 261.326 182.26 238.042Z" fill="url(#paint0_linear_2819_54723)"/>
<path d="M79.3711 142.137C79.3711 142.137 82.8385 149.412 93.5817 149.412C104.325 149.412 106.83 142.137 106.83 142.137" stroke="#444444" stroke-width="4.37" stroke-linecap="round" stroke-linejoin="round"/>
<path d="M170.77 142.137C170.77 142.137 174.237 149.412 184.98 149.412C195.723 149.412 198.209 142.137 198.209 142.137" stroke="#444444" stroke-width="4.37" stroke-linecap="round" stroke-linejoin="round"/>
<path d="M171.289 198.118C171.289 198.118 164.654 181.883 139.821 181.883C114.988 181.883 108.895 198.118 108.895 198.118" stroke="#444444" stroke-width="4.37" stroke-linecap="round" stroke-linejoin="round"/>
<path d="M200.314 157.771L209.073 182.023C209.886 184.468 209.712 187.134 208.588 189.453C207.464 191.771 205.478 193.559 203.055 194.435C200.632 195.311 197.962 195.205 195.616 194.141C193.269 193.077 191.431 191.138 190.493 188.738C189.721 186.566 189.721 184.195 190.493 182.023L199.252 157.771C199.31 157.636 199.415 157.527 199.548 157.464C199.681 157.401 199.832 157.389 199.974 157.43C200.05 157.462 200.12 157.508 200.178 157.566C200.237 157.625 200.283 157.694 200.314 157.771Z" fill="#91B5E6"/>
<defs>
<linearGradient id="paint0_linear_2819_54723" x1="93521.9" y1="67502.2" x2="73865.8" y2="78849.7" gradientUnits="userSpaceOnUse">
<stop stop-color="#9C8652"/>
<stop offset="1" stop-color="white"/>
</linearGradient>
</defs>
</svg>
