<svg width="9" height="9" viewBox="0 0 9 9" fill="none" xmlns="http://www.w3.org/2000/svg">
<path d="M1.58175 0.761609L4.49775 3.67761L7.40175 0.773609C7.45265 0.71944 7.51395 0.676106 7.582 0.646207C7.65005 0.616307 7.72343 0.600458 7.79775 0.599609C7.95688 0.599609 8.1095 0.662823 8.22202 0.775345C8.33454 0.887867 8.39775 1.04048 8.39775 1.19961C8.39915 1.27317 8.38551 1.34624 8.35765 1.41434C8.32979 1.48243 8.28831 1.54412 8.23575 1.59561L5.30175 4.49961L8.23575 7.43361C8.33464 7.53035 8.39263 7.66136 8.39775 7.79961C8.39775 7.95874 8.33454 8.11135 8.22202 8.22387C8.1095 8.33639 7.95688 8.39961 7.79775 8.39961C7.72129 8.40278 7.645 8.39002 7.57372 8.36213C7.50245 8.33424 7.43776 8.29184 7.38375 8.23761L4.49775 5.32161L1.58775 8.23161C1.53706 8.28397 1.47649 8.32578 1.40956 8.35461C1.34262 8.38345 1.27063 8.39874 1.19775 8.39961C1.03862 8.39961 0.886012 8.33639 0.77349 8.22387C0.660968 8.11135 0.597754 7.95874 0.597754 7.79961C0.596355 7.72605 0.610003 7.65298 0.637861 7.58488C0.665719 7.51678 0.707198 7.4551 0.759754 7.40361L3.69375 4.49961L0.759754 1.56561C0.660865 1.46886 0.602878 1.33786 0.597754 1.19961C0.597754 1.04048 0.660968 0.887867 0.77349 0.775345C0.886012 0.662823 1.03862 0.599609 1.19775 0.599609C1.34175 0.601409 1.47975 0.659609 1.58175 0.761609Z" fill="#1D274A"/>
</svg>
