<svg width="24" height="24" viewBox="0 0 24 24" fill="none" xmlns="http://www.w3.org/2000/svg">
<path d="M24 7.92188C24 6.35578 24 5.26017 24 5.15625C24 3.99314 23.0537 3.04688 21.8906 3.04688H21.6094V5.625C21.6094 6.01331 21.2946 6.32812 20.9062 6.32812C20.5179 6.32812 20.2031 6.01331 20.2031 5.625C20.2031 4.83567 20.2031 2.661 20.2031 1.875C20.2031 1.48669 19.8883 1.17188 19.5 1.17188C19.1117 1.17188 18.7969 1.48669 18.7969 1.875V3.04688H14.1094V5.625C14.1094 6.01331 13.7946 6.32812 13.4062 6.32812C13.0179 6.32812 12.7031 6.01331 12.7031 5.625C12.7031 4.83567 12.7031 2.661 12.7031 1.875C12.7031 1.48669 12.3883 1.17188 12 1.17188C11.6117 1.17188 11.2969 1.48669 11.2969 1.875V3.04688H6.60938V5.625C6.60938 6.01331 6.29456 6.32812 5.90625 6.32812C5.51794 6.32812 5.20312 6.01331 5.20312 5.625C5.20312 4.83567 5.20312 2.661 5.20312 1.875C5.20312 1.48669 4.88831 1.17188 4.5 1.17188C4.11169 1.17188 3.79688 1.48669 3.79688 1.875V3.04688H2.10938C0.946266 3.04688 0 3.99314 0 5.15625V7.92188H24Z" fill="#6182F7"/>
<path d="M0 8.92188V20.3125C0 21.4756 0.946266 22.4219 2.10938 22.4219H21.8906C23.0537 22.4219 24 21.4756 24 20.3125C24 20.0113 24 13.4307 24 8.92188C23.5624 8.92188 0.242063 8.92188 0 8.92188ZM6.75 18.6719H5.25C4.86169 18.6719 4.54688 18.3571 4.54688 17.9688C4.54688 17.5804 4.86169 17.2656 5.25 17.2656H6.75C7.13831 17.2656 7.45312 17.5804 7.45312 17.9688C7.45312 18.3571 7.13831 18.6719 6.75 18.6719ZM6.75 15.6719H5.25C4.86169 15.6719 4.54688 15.3571 4.54688 14.9688C4.54688 14.5804 4.86169 14.2656 5.25 14.2656H6.75C7.13831 14.2656 7.45312 14.5804 7.45312 14.9688C7.45312 15.3571 7.13831 15.6719 6.75 15.6719ZM6.75 12.6719H5.25C4.86169 12.6719 4.54688 12.3571 4.54688 11.9688C4.54688 11.5804 4.86169 11.2656 5.25 11.2656H6.75C7.13831 11.2656 7.45312 11.5804 7.45312 11.9688C7.45312 12.3571 7.13831 12.6719 6.75 12.6719ZM12.75 18.6719H11.25C10.8617 18.6719 10.5469 18.3571 10.5469 17.9688C10.5469 17.5804 10.8617 17.2656 11.25 17.2656H12.75C13.1383 17.2656 13.4531 17.5804 13.4531 17.9688C13.4531 18.3571 13.1383 18.6719 12.75 18.6719ZM12.75 15.6719H11.25C10.8617 15.6719 10.5469 15.3571 10.5469 14.9688C10.5469 14.5804 10.8617 14.2656 11.25 14.2656H12.75C13.1383 14.2656 13.4531 14.5804 13.4531 14.9688C13.4531 15.3571 13.1383 15.6719 12.75 15.6719ZM12.75 12.6719H11.25C10.8617 12.6719 10.5469 12.3571 10.5469 11.9688C10.5469 11.5804 10.8617 11.2656 11.25 11.2656H12.75C13.1383 11.2656 13.4531 11.5804 13.4531 11.9688C13.4531 12.3571 13.1383 12.6719 12.75 12.6719ZM18.75 18.6719H17.25C16.8617 18.6719 16.5469 18.3571 16.5469 17.9688C16.5469 17.5804 16.8617 17.2656 17.25 17.2656H18.75C19.1383 17.2656 19.4531 17.5804 19.4531 17.9688C19.4531 18.3571 19.1383 18.6719 18.75 18.6719ZM18.75 15.6719H17.25C16.8617 15.6719 16.5469 15.3571 16.5469 14.9688C16.5469 14.5804 16.8617 14.2656 17.25 14.2656H18.75C19.1383 14.2656 19.4531 14.5804 19.4531 14.9688C19.4531 15.3571 19.1383 15.6719 18.75 15.6719ZM18.75 12.6719H17.25C16.8617 12.6719 16.5469 12.3571 16.5469 11.9688C16.5469 11.5804 16.8617 11.2656 17.25 11.2656H18.75C19.1383 11.2656 19.4531 11.5804 19.4531 11.9688C19.4531 12.3571 19.1383 12.6719 18.75 12.6719Z" fill="#6182F7"/>
</svg>
