<svg width="15" height="13" viewBox="0 0 15 13" fill="none" xmlns="http://www.w3.org/2000/svg">
<path d="M12.5497 1.34766C12.7892 1.11967 13.1079 0.993629 13.4385 0.99613C13.7691 0.998632 14.0859 1.12948 14.3219 1.36107C14.5579 1.59265 14.6947 1.90686 14.7034 2.23739C14.7121 2.56793 14.5921 2.88893 14.3687 3.13266L7.58571 11.6157C7.46907 11.7413 7.3283 11.8421 7.17181 11.9121C7.01532 11.9821 6.84633 12.0198 6.67493 12.0229C6.50354 12.0261 6.33327 11.9947 6.17429 11.9306C6.01532 11.8664 5.87091 11.7709 5.74971 11.6497L1.25151 7.15146C1.12624 7.03473 1.02577 6.89397 0.95608 6.73757C0.886393 6.58118 0.848922 6.41234 0.845902 6.24115C0.842881 6.06995 0.874373 5.8999 0.938499 5.74114C1.00262 5.58238 1.09807 5.43817 1.21914 5.31709C1.34021 5.19602 1.48443 5.10058 1.64319 5.03645C1.80195 4.97233 1.972 4.94083 2.1432 4.94385C2.31439 4.94687 2.48322 4.98435 2.63962 5.05403C2.79602 5.12372 2.93678 5.22419 3.05351 5.34946L6.61331 8.90756L12.5174 1.38506C12.528 1.37197 12.5394 1.35948 12.5514 1.34766H12.5497Z" fill="#1D274A"/>
</svg>
