<svg id="epilator" viewBox="0 0 31 31" xmlns="http://www.w3.org/2000/svg">
<g clip-path="url(#clip0)">
<path d="M20.9804 0.160156H10.0227C9.72013 0.160156 9.47481 0.405474 9.47481 0.708041V1.2998C7.58958 1.57187 6.18991 3.18637 6.1875 5.09112V22.0756C6.19178 22.1283 6.20382 22.1802 6.22335 22.2294C6.58531 27.0862 10.6316 30.842 15.5016 30.842C20.3718 30.842 24.4181 27.0862 24.78 22.2294C24.7996 22.1802 24.8116 22.1283 24.8156 22.0756V5.09112C24.8135 3.18637 23.4135 1.57187 21.5283 1.2998V0.708041C21.5283 0.405474 21.2832 0.160156 20.9804 0.160156ZM10.5706 1.80381V1.25593H11.6664V2.3517H12.7621V1.25593H13.8579V2.3517H14.9537V1.25593H16.0494V2.3517H17.1452V1.25593H18.241V2.3517H19.3368V1.25593H20.4325V6.73478H19.3368V5.63901H18.241V6.73478H17.1452V5.63901H16.0494V6.73478H14.9537V5.63901H13.8579V6.73478H12.7621V5.63901H11.6664V6.73478H10.5706V1.80381ZM7.28327 11.8525C9.2608 12.5943 10.5709 14.4846 10.5709 16.5967C10.5709 18.7088 9.2608 20.5991 7.28327 21.3409V11.8525ZM23.7198 21.3409C21.7426 20.5991 20.4325 18.7088 20.4325 16.5967C20.4325 14.4846 21.7426 12.5943 23.7198 11.8525V21.3409ZM23.7198 10.7032C21.1289 11.4817 19.3501 13.861 19.3368 16.5665C19.3231 19.2719 21.0781 21.6689 23.6613 22.4734C23.1827 26.6175 19.6736 29.7449 15.5016 29.7449C11.3298 29.7449 7.82072 26.6175 7.34213 22.4734C9.92532 21.6689 11.6803 19.2719 11.6666 16.5665C11.6532 13.861 9.87449 11.4817 7.28327 10.7032V10.0221H23.7198V10.7032ZM23.7198 5.09112V8.92632H7.28327V5.09112C7.28488 3.78989 8.20007 2.66844 9.47481 2.40654V7.28266C9.47481 7.58523 9.72013 7.83055 10.0227 7.83055H20.9804C21.2832 7.83055 21.5283 7.58523 21.5283 7.28266V2.40654C22.803 2.66844 23.7185 3.78989 23.7198 5.09112Z" />
<path d="M11.668 3.44922H12.7637V4.545H11.668V3.44922Z"/>
<path d="M13.8555 3.44922H14.9512V4.545H13.8555V3.44922Z" />
<path d="M16.0479 3.44861H17.1437V4.54438H16.0479V3.44861Z" />
<path d="M18.2383 3.44861H19.3341V4.54438H18.2383V3.44861Z" />
<path d="M15.5051 22.6197C17.0174 22.6178 18.2429 21.3925 18.2445 19.8802C18.2429 19.293 18.0506 18.7221 17.6966 18.2534V17.1408C17.6966 15.9305 16.7156 14.9492 15.5051 14.9492C14.2948 14.9492 13.3135 15.9305 13.3135 17.1408V18.2534C12.9598 18.7221 12.7675 19.293 12.7656 19.8802C12.7675 21.3925 13.993 22.6178 15.5051 22.6197ZM14.4093 17.1408C14.4093 16.5356 14.8999 16.045 15.5051 16.045C16.1105 16.045 16.6009 16.5356 16.6009 17.1408V17.373C15.9032 17.0635 15.107 17.0635 14.4093 17.373V17.1408ZM15.5051 18.2366C16.4131 18.2366 17.1488 18.9725 17.1488 19.8802C17.1488 20.7879 16.4131 21.5239 15.5051 21.5239C14.5974 21.5239 13.8614 20.7879 13.8614 19.8802C13.8614 18.9725 14.5974 18.2366 15.5051 18.2366Z" />
<path d="M15.4991 24.2695C14.5914 24.2695 13.8555 25.0055 13.8555 25.9132C13.8555 26.8209 14.5914 27.5569 15.4991 27.5569C16.4071 27.5569 17.1428 26.8209 17.1428 25.9132C17.1428 25.0055 16.4071 24.2695 15.4991 24.2695ZM15.4991 26.4611C15.1966 26.4611 14.9513 26.2158 14.9513 25.9132C14.9513 25.6106 15.1966 25.3653 15.4991 25.3653C15.802 25.3653 16.047 25.6106 16.047 25.9132C16.047 26.2158 15.802 26.4611 15.4991 26.4611Z" />
</g>
<defs>
<clipPath id="clip0">
<rect width="30.6818" height="30.6818" fill="white" transform="translate(0.160156 0.160156)"/>
</clipPath>
</defs>
</svg>
