<svg width="27" height="27" viewBox="0 0 27 27" fill="none" xmlns="http://www.w3.org/2000/svg">
<path d="M22.8494 26.3H15.6301V19.9344V19.2344H14.9301H11.5945H10.8945V19.9344V26.3H4.15173C4.0485 26.3 3.89868 26.2007 3.89868 25.9906V16.7264V16.0264H3.19868H1.9061C1.27869 16.0264 0.7 15.473 0.7 14.7077C0.7 14.3458 0.83714 14.0049 1.06871 13.7595C1.06877 13.7595 1.06883 13.7594 1.06889 13.7594L13.3363 0.776446L13.3369 0.775762C13.3622 0.74891 13.3901 0.729901 13.4177 0.717741C13.4453 0.70563 13.4733 0.7 13.5006 0.7C13.5278 0.7 13.5558 0.705629 13.5834 0.71774C13.611 0.7299 13.6389 0.748907 13.6642 0.775765L13.6649 0.776445L25.9322 13.7594C26.4222 14.2783 26.4223 15.1349 25.9342 15.6539L25.9332 15.655C25.7053 15.8983 25.4036 16.0264 25.095 16.0264H23.8024H23.1024V16.7264V25.9906C23.1024 26.2008 22.9526 26.3 22.8494 26.3Z" stroke="#2A284D" stroke-width="1.4"/>
</svg>
