<svg width="28" height="40" viewBox="0 0 28 40" fill="none" xmlns="http://www.w3.org/2000/svg">
<path d="M0.210938 0.999999V37.8935C0.210938 38.7365 1.18994 39.2012 1.84311 38.6683L13.0788 29.5013C13.4467 29.2011 13.9751 29.2011 14.3431 29.5013L25.5788 38.6683C26.2319 39.2012 27.2109 38.7365 27.2109 37.8935V1C27.2109 0.447715 26.7632 0 26.2109 0H1.21094C0.658653 0 0.210938 0.447714 0.210938 0.999999Z" fill="#2A284D"/>
<path d="M20.6836 4.6582H17.6484C17.4091 4.6582 17.1796 4.75327 17.0104 4.92249C16.8412 5.09172 16.7461 5.32123 16.7461 5.56055C16.7461 5.79986 16.8412 6.02938 17.0104 6.1986C17.1796 6.36782 17.4091 6.46289 17.6484 6.46289H18.5053L16.9836 7.98416C16.3762 7.27525 15.6226 6.70622 14.7745 6.31618C13.9263 5.92614 13.0038 5.72433 12.0703 5.72461C8.49703 5.72461 5.58984 8.6318 5.58984 12.2051C5.58984 15.4724 8.02043 18.1819 11.168 18.6224V20.1621H10.0195C9.78022 20.1621 9.5507 20.2572 9.38148 20.4264C9.21226 20.5956 9.11719 20.8251 9.11719 21.0645C9.11719 21.3038 9.21226 21.5333 9.38148 21.7025C9.5507 21.8717 9.78022 21.9668 10.0195 21.9668H11.168V23.4434C11.168 23.6827 11.263 23.9122 11.4323 24.0814C11.6015 24.2506 11.831 24.3457 12.0703 24.3457C12.3096 24.3457 12.5391 24.2506 12.7084 24.0814C12.8776 23.9122 12.9727 23.6827 12.9727 23.4434V21.9668H14.1211C14.3604 21.9668 14.5899 21.8717 14.7591 21.7025C14.9284 21.5333 15.0234 21.3038 15.0234 21.0645C15.0234 20.8251 14.9284 20.5956 14.7591 20.4264C14.5899 20.2572 14.3604 20.1621 14.1211 20.1621H12.9727V18.6224C16.1202 18.1819 18.5508 15.4724 18.5508 12.2051C18.5513 11.2867 18.3555 10.3789 17.9766 9.54234L19.7813 7.73766V8.5957C19.7813 8.83502 19.8763 9.06453 20.0455 9.23376C20.2148 9.40298 20.4443 9.49805 20.6836 9.49805C20.9229 9.49805 21.1524 9.40298 21.3216 9.23376C21.4909 9.06453 21.5859 8.83502 21.5859 8.5957V5.56055C21.5859 5.32123 21.4909 5.09172 21.3216 4.92249C21.1524 4.75327 20.9229 4.6582 20.6836 4.6582ZM12.0703 16.8809C11.1455 16.8809 10.2415 16.6066 9.47259 16.0928C8.70366 15.5791 8.10435 14.8488 7.75045 13.9944C7.39656 13.14 7.30396 12.1999 7.48438 11.2929C7.66479 10.3859 8.11012 9.55272 8.76404 8.8988C9.41796 8.24488 10.2511 7.79956 11.1581 7.61914C12.0651 7.43872 13.0053 7.53132 13.8597 7.88522C14.714 8.23912 15.4443 8.83842 15.9581 9.60735C16.4719 10.3763 16.7461 11.2803 16.7461 12.2051C16.7447 13.4447 16.2516 14.6332 15.375 15.5098C14.4985 16.3864 13.31 16.8794 12.0703 16.8809Z" fill="white"/>
</svg>
