<svg width="20" height="21" viewBox="0 0 20 21" fill="none" xmlns="http://www.w3.org/2000/svg">
<g clip-path="url(#clip0)">
<path d="M19.5813 4.92378C19.2688 4.20028 18.8183 3.54465 18.2548 2.99359C17.691 2.44089 17.0262 2.00166 16.2967 1.6998C15.5402 1.38555 14.7288 1.22469 13.9096 1.22658C12.7603 1.22658 11.639 1.54128 10.6646 2.13573C10.4315 2.27793 10.2101 2.43411 10.0003 2.60429C9.79045 2.43411 9.56899 2.27793 9.33587 2.13573C8.36145 1.54128 7.24017 1.22658 6.09091 1.22658C5.26336 1.22658 4.46144 1.3851 3.70382 1.6998C2.97184 2.00285 2.31212 2.43878 1.74565 2.99359C1.18151 3.54403 0.730852 4.19981 0.419229 4.92378C0.0951991 5.67674 -0.0703125 6.47633 -0.0703125 7.29922C-0.0703125 8.0755 0.0882057 8.8844 0.402911 9.7073C0.666331 10.395 1.04398 11.1083 1.52652 11.8286C2.29114 12.9686 3.34249 14.1575 4.64793 15.3627C6.81124 17.3605 8.95357 18.7405 9.04448 18.7965L9.59696 19.1508C9.84173 19.307 10.1564 19.307 10.4012 19.1508L10.9537 18.7965C11.0446 18.7382 13.1846 17.3605 15.3502 15.3627C16.6557 14.1575 17.707 12.9686 18.4716 11.8286C18.9542 11.1083 19.3342 10.395 19.5953 9.7073C19.91 8.8844 20.0685 8.0755 20.0685 7.29922C20.0708 6.47633 19.9053 5.67674 19.5813 4.92378ZM10.0003 17.3068C10.0003 17.3068 1.70136 11.9895 1.70136 7.29922C1.70136 4.92378 3.66652 2.99825 6.09091 2.99825C7.79498 2.99825 9.27293 3.94936 10.0003 5.33873C10.7276 3.94936 12.2055 2.99825 13.9096 2.99825C16.334 2.99825 18.2991 4.92378 18.2991 7.29922C18.2991 11.9895 10.0003 17.3068 10.0003 17.3068Z" fill="#6182F7"/>
</g>
<defs>
<clipPath id="clip0">
<rect width="20" height="20" fill="white" transform="translate(0 0.25)"/>
</clipPath>
</defs>
</svg>
