<svg width="22" height="22" viewBox="0 0 22 22" fill="none" xmlns="http://www.w3.org/2000/svg">
<path d="M3 11C3 12.4702 4.26682 13.6667 5.82353 13.6667C6.57082 13.6667 7.24659 13.3867 7.752 12.9378L13.3906 15.9813C13.3736 16.0969 13.3529 16.2124 13.3529 16.3333C13.3529 17.8036 14.6198 19 16.1765 19C17.7332 19 19 17.8036 19 16.3333C19 14.8631 17.7332 13.6667 16.1765 13.6667C15.4292 13.6667 14.7534 13.9467 14.248 14.3956L8.60941 11.3529C8.62635 11.2364 8.64706 11.1209 8.64706 11C8.64706 10.8791 8.62635 10.7636 8.60941 10.6471L14.248 7.60444C14.7534 8.05333 15.4292 8.33333 16.1765 8.33333C17.7332 8.33333 19 7.13689 19 5.66667C19 4.19644 17.7332 3 16.1765 3C14.6198 3 13.3529 4.19644 13.3529 5.66667C13.3529 5.78756 13.3736 5.90311 13.3906 6.01956L7.752 9.06222C7.23153 8.59527 6.5414 8.33442 5.82353 8.33333C4.26682 8.33333 3 9.52978 3 11Z" fill="#6182F7"/>
</svg>
